{
  "img": {
    "include()": {
      "pattern": "molecules-image",
      "with": {
        "img_src": "https://via.placeholder.com/576x320",
        "img_alt": "Placeholder Text",
        "attributes": {
          "Attribute()": {
            "class": []
          }
        }
      }
    }
  },
  "btn": {
    "include()": {
      "pattern": "molecules-call-to-action-button",
      "with": {
        "btn_text": "Get Tickets",
        "btn_link": "https://sfsu.edu/"
      }
    }
  },
  "event_title" : "GatorFest! KICK-OFF! & Entering Year Pin Ceremony",
  "event_date_time" : "Tuesday, August 20, 2023 | 4:00 pm - Tuesday, August 20, 2023 | 7:00 pm",
  "event_cost" : "Free",
  "event_location" : "West Campus Green",
  "event_contact" : "nsp@sfsu.edu",
  "attributes": {
    "Attribute()": {
      "class": []
    }
  },
  "ui_pattern_definition": {
    "label": "Card - Event Info (Image Left)"
  }
}