{
  "img": {
    "include()": {
      "pattern": "molecules-image",
      "with": {
        "img_src": "https://via.placeholder.com/250x250",
        "img_alt": "Placeholder Text",
        "attributes": {
          "Attribute()": {
            "class": []
          }
        }
      }
    }
  },
  "title_exists": false,
  "card_title": "Card Title",
  "card_content": "Some quick example text to build on the card title and make up the bulk of the card's content.",
  "btn": {
    "include()": {
      "pattern": "molecules-primary-button",
      "with": {
        "btn_text": "Go Somewhere",
        "btn_link": "http://sfsu.edu/"
      }
    }
  },
  "attributes": {
    "Attribute()": {
      "class": []
    }
  },
  "ui_pattern_definition": {
    "label": "Card - Basic (Blue)"
  }
}