{
  "title": "Why College of Arts and Letters",
  "get_started_info": {
    "join()": [
      {
        "include()": {
          "pattern": "molecules-get-started-item",
          "with": {
            "attributes": {
              "Attribute()": {
                "class": []
              }
            }
          }
        }
      },
      {
        "include()": {
          "pattern": "molecules-get-started-inverse-item",
          "with": {
            "attributes": {
              "Attribute()": {
                "class": []
              }
            }
          }
        }
      },
      {
        "include()": {
          "pattern": "molecules-get-started-item",
          "with": {
            "attributes": {
              "Attribute()": {
                "class": []
              }
            }
          }
        }
      }
    ]
  },
  "attributes": {
    "Attribute()": {
      "class": []
    }
  },
  "ui_pattern_definition": {
    "label": "Section - Get Started"
  }
}