{
  "title": "Explore Our Campus with a Virtual Tour!",
  "description": "Explore our campus through interactive 360-degree photography and immersive video, highlighting our discussion-based classes and state-of-the-art learning centers.",
  "cta_text": "Explore Our Campus Now",
  "cta_link": "https://www.youvisit.com/tour/sfsu",
  "ada_cta_text": "View ADA Accessible Tour",
  "ada_cta_link": "https://www.youvisit.com/tour/ada/sfsu/88825?tourid=tour2&",
  "attributes": {
    "Attribute()": {
      "class": []
    }
  },
  "ui_pattern_definition": {
    "label": "Embed - Campus Tour"
  }
}
